                      Thank you for download my model . 

My other  11  models : 
...........................................................................
*  Charger table lamp .                                      . 
                                                                          .
*  Airplane Turbo Engine .                                . 
                                                                          .
*  Bridge .                                                          .
 			                      .
*  Torch Light .                                                  .
                                                                          .   
*  Concrete & Metal Walls .                              .
                                                                         .
*  LCD Telivision with Remot .                         . 
                                                                         .
*  Pens .                                                           . 
                                                                         .
*  Barrier                                                           . 
                                                                         .
*  Leds                                                             . 
                                                                        .
*  Table                                                            .
 
*  Sofa                                                            .
...........................................................................

If you like these 11 models ,pleasse download . :-)