newmtl Steel
illum 4
Kd 0.00 0.00 0.00
Ka 0.00 0.00 0.00
Tf 1.00 1.00 1.00
Ni 1.00
Ks 0.21 0.21 0.21
Ns 21.00
newmtl blinn1SG
illum 4
Kd 0.01 0.01 0.00
Ka 0.00 0.00 0.00
Tf 1.00 1.00 1.00
Ni 1.00
Ks 0.68 0.64 0.00
newmtl blinn2SG
illum 4
Kd 0.81 0.81 0.81
Ka 0.00 0.00 0.00
Tf 1.00 1.00 1.00
Ni 1.00
Ks 0.23 0.23 0.23
newmtl initialShadingGroup
illum 4
Kd 0.00 0.00 0.00
Ka 0.00 0.00 0.00
Tf 1.00 1.00 1.00
Ni 1.00
newmtl lambert3SG
illum 4
Kd 0.04 0.04 0.04
Ka 0.00 0.00 0.00
Tf 1.00 1.00 1.00
Ni 1.00
newmtl lambert4SG
illum 4
Kd 0.01 0.01 0.01
Ka 0.00 0.00 0.00
Tf 1.00 1.00 1.00
Ni 1.00
newmtl lambert5SG
illum 4
Kd 0.01 0.00 0.00
Ka 0.00 0.00 0.00
Tf 1.00 1.00 1.00
Ni 1.00
newmtl lambert8SG
illum 4
Kd 0.00 0.00 0.00
Ka 0.00 0.00 0.00
Tf 1.00 1.00 1.00
Ni 1.00
newmtl lambert9SG
illum 4
Kd 0.50 0.50 0.50
Ka 0.00 0.00 0.00
Tf 1.00 1.00 1.00
Ni 1.00
newmtl phong1SG
illum 4
Kd 0.00 0.00 0.00
Ka 0.00 0.00 0.00
Tf 1.00 1.00 1.00
Ni 1.00
Ks 0.70 0.70 0.70
Ns 32.45
newmtl phong2SG
illum 4
Kd 0.04 0.02 0.00
Ka 0.00 0.00 0.00
Tf 1.00 1.00 1.00
Ni 1.00
Ks 0.50 0.50 0.50
Ns 18.00
newmtl phong3SG
illum 4
Kd 0.12 0.03 0.00
Ka 0.00 0.00 0.00
Tf 1.00 1.00 1.00
Ni 1.00
Ks 0.14 0.04 0.00
Ns 32.45
